module gitlab.com/tedtramonte/gosolo

go 1.19

require (
	github.com/gonutz/w32/v2 v2.7.0
	github.com/hnakamur/w32syscall v0.0.0-20150329104255-b8b99ed86a56
	github.com/shirou/gopsutil/v3 v3.23.1
)

require (
	github.com/go-ole/go-ole v1.2.6 // indirect
	github.com/lufia/plan9stats v0.0.0-20211012122336-39d0f177ccd0 // indirect
	github.com/power-devops/perfstat v0.0.0-20210106213030-5aafc221ea8c // indirect
	github.com/tklauser/go-sysconf v0.3.11 // indirect
	github.com/tklauser/numcpus v0.6.0 // indirect
	github.com/yusufpapurcu/wmi v1.2.2 // indirect
	golang.org/x/sys v0.4.0 // indirect
)
